…
There are 7 more participants in the amyloid dataset than in the
baseline dataset. 232 of the participants are apoe4 carriers.

Combining datasets:

``` r
combined_mci_df =
  inner_join(baseline_df, amyloid_df, by = "id")

write.csv(combined_mci_df, file = "data/data_mci/combined_mci_df.csv")

filter(combined_mci_df, sex == "female", TRUE)
```

    ## # A tibble: 205 × 11
    ##       id current_age sex    education apoe4  age_at_onset baseline time_2 time_4
    ##    <dbl>       <dbl> <chr>      <dbl> <chr>  <chr>        <chr>    <chr>  <chr> 
    ##  1     1        63.1 female        16 APOE4… .            0.11054… <NA>   0.109…
    ##  2     2        65.6 female        20 APOE4… .            0.10748… 0.109… 0.109…
    ##  3     4        69.8 female        16 APOE4… .            0.10925… 0.108… 0.110…
    ##  4     8        67.2 female        18 APOE4… .            0.10956… 0.109… <NA>  
    ##  5     9        66.7 female        16 APOE4… .            0.11210… 0.109… 0.108…
    ##  6    10        64.1 female        18 APOE4… .            0.11160… 0.111… <NA>  
    ##  7    11        69.5 female        16 APOE4… .            0.10911… 0.109… 0.111…
    ##  8    12        66.2 female        18 APOE4… .            0.11204… 0.114… 0.109…
    ##  9    16        64.9 female        16 APOE4… .            0.11021… 0.113… 0.111…
    ## 10    17        65   female        18 APOE4… .            0.10839… 0.113… 0.105…
    ## # ℹ 195 more rows
    ## # ℹ 2 more variables: time_6 <chr>, time_8 <chr>

``` r
filter(combined_mci_df, apoe4 == "APOE4 carrier", TRUE)
```

    ## # A tibble: 142 × 11
    ##       id current_age sex    education apoe4  age_at_onset baseline time_2 time_4
    ##    <dbl>       <dbl> <chr>      <dbl> <chr>  <chr>        <chr>    <chr>  <chr> 
    ##  1     1        63.1 female        16 APOE4… .            0.11054… <NA>   0.109…
    ##  2     2        65.6 female        20 APOE4… .            0.10748… 0.109… 0.109…
    ##  3     3        62.5 male          16 APOE4… 66.8         0.10608… 0.108… 0.106…
    ##  4    13        63.1 male          12 APOE4… 69           0.11030… 0.108… 0.108…
    ##  5    19        67.5 male          16 APOE4… .            0.10698… 0.105… 0.107…
    ##  6    22        67.3 female        20 APOE4… 74.6         0.10932… <NA>   0.107…
    ##  7    26        64.8 female        20 APOE4… 71.1         0.10474… 0.110… 0.106…
    ##  8    34        64.8 female        16 APOE4… .            0.10499… 0.104… <NA>  
    ##  9    39        68.3 female        16 APOE4… 70.2         0.10442… <NA>   0.103…
    ## 10    43        67.1 female        16 APOE4… 71.6         0.11042… 0.105… <NA>  
    ## # ℹ 132 more rows
    ## # ℹ 2 more variables: time_6 <chr>, time_8 <chr>
…
